{
    "inputMessageMetadata": {},
    "outputMessageMetadata": {
        "messagePayload": {
            "connectorName": "#_custom_mule_metadata_type_#",
            "typeId": "ORU-HL7-2-4"
        }
    },
    "id": "21620bed-7047-4128-86da-6029776d4b15",
    "version": "5.2.0.0"
}