{
    "inputMessageMetadata": {},
    "outputMessageMetadata": {
        "messagePayload": {
            "connectorName": "#_custom_mule_metadata_type_#",
            "typeId": "canonical-hl7-xml"
        }
    },
    "id": "43ee06a0-9aa2-4c8b-94e5-2a85cd25ba6d",
    "version": "5.2.0.0"
}