{
    "inputMessageMetadata": {
        "messagePayload": {
            "connectorName": "#_custom_mule_metadata_type_#",
            "typeId": "aqure-webservice-xml"
        }
    },
    "outputMessageMetadata": {
        "messagePayload": {
            "connectorName": "#_custom_mule_metadata_type_#",
            "typeId": "canonical-hl7-xml"
        }
    },
    "id": "afff8ba4-87e9-4fbe-a96d-7ac79ffdd4f0",
    "version": "5.2.0.0"
}